{
  "data": [
    [
      "Libellé",
      "idBank",
      "Période",
      "2001-T4",
      "2002-T1",
      "2002-T2",
      "2002-T3",
      "2002-T4",
      "2003-T1",
      "2003-T2",
      "2003-T3",
      "2003-T4",
      "2004-T1",
      "2004-T2",
      "2004-T3",
      "2004-T4",
      "2005-T1",
      "2005-T2",
      "2005-T3",
      "2005-T4",
      "2006-T1",
      "2006-T2",
      "2006-T3",
      "2006-T4",
      "2007-T1",
      "2007-T2",
      "2007-T3",
      "2007-T4",
      "2008-T1",
      "2008-T2",
      "2008-T3",
      "2008-T4",
      "2009-T1",
      "2009-T2",
      "2009-T3",
      "2009-T4",
      "2010-T1",
      "2010-T2",
      "2010-T3",
      "2010-T4",
      "2011-T1",
      "2011-T2",
      "2011-T3",
      "2011-T4",
      "2012-T1",
      "2012-T2",
      "2012-T3",
      "2012-T4",
      "2013-T1",
      "2013-T2",
      "2013-T3",
      "2013-T4",
      "2014-T1",
      "2014-T2",
      "2014-T3",
      "2014-T4",
      "2015-T1",
      "2015-T2",
      "2015-T3",
      "2015-T4",
      "2016-T1",
      "2016-T2",
      "2016-T3",
      "2016-T4",
      "2017-T1",
      "2017-T2",
      "2017-T3",
      "2017-T4",
      "2018-T1",
      "2018-T2"
    ],
    [
      "Emploi salarié en fin de trimestre - Ensemble des salariés du secteur public - Île-de-France",
      "10568024",
      "",
      "",
      "",
      "",
      "",
      "",
      "",
      "",
      "",
      "",
      "",
      "",
      "",
      "",
      "",
      "",
      "",
      "",
      "",
      "",
      "",
      "",
      "",
      "",
      "",
      "",
      "",
      "",
      "",
      "",
      "",
      "",
      "",
      "",
      "",
      "",
      "",
      "1116435",
      "1115641",
      "1116690",
      "1114270",
      "1114840",
      "1119371",
      "1117992",
      "1118954",
      "1117879",
      "1114328",
      "1119194",
      "1120294",
      "1129701",
      "1133003",
      "1129669",
      "1129145",
      "1131037",
      "1127878",
      "1129364",
      "1129601",
      "1128037",
      "1128553",
      "1130228",
      "1130665",
      "1134067",
      "1133121",
      "1134142",
      "1132070",
      "1131013",
      "1129607",
      "1128064"
    ],
    [
      "",
      "",
      "",
      "",
      "",
      "",
      "",
      "",
      "",
      "",
      "",
      "",
      "",
      "",
      "",
      "",
      "",
      "",
      "",
      "",
      "",
      "",
      "",
      "",
      "",
      "",
      "",
      "",
      "",
      "",
      "",
      "",
      "",
      "",
      "",
      "",
      "",
      "",
      "",
      "",
      "",
      "",
      "",
      "",
      "",
      "",
      "",
      "",
      "",
      "",
      "",
      "",
      "",
      "",
      "",
      "",
      "",
      "",
      "",
      "",
      "",
      "",
      "",
      "",
      "",
      "",
      "",
      "",
      "",
      ""
    ],
    [
      "Emploi salarié en fin de trimestre - Ensemble des salariés du secteur public - Centre-Val de Loire",
      "10568025",
      "",
      "",
      "",
      "",
      "",
      "",
      "",
      "",
      "",
      "",
      "",
      "",
      "",
      "",
      "",
      "",
      "",
      "",
      "",
      "",
      "",
      "",
      "",
      "",
      "",
      "",
      "",
      "",
      "",
      "",
      "",
      "",
      "",
      "",
      "",
      "",
      "",
      "213495",
      "213623",
      "213310",
      "212750",
      "213229",
      "213516",
      "213551",
      "214239",
      "214247",
      "213698",
      "214707",
      "213808",
      "216195",
      "216594",
      "216013",
      "216189",
      "216850",
      "217352",
      "217653",
      "217166",
      "217700",
      "218111",
      "218203",
      "218476",
      "218444",
      "218854",
      "219350",
      "219424",
      "219141",
      "219273",
      "219131"
    ],
    [
      "",
      "",
      "",
      "",
      "",
      "",
      "",
      "",
      "",
      "",
      "",
      "",
      "",
      "",
      "",
      "",
      "",
      "",
      "",
      "",
      "",
      "",
      "",
      "",
      "",
      "",
      "",
      "",
      "",
      "",
      "",
      "",
      "",
      "",
      "",
      "",
      "",
      "",
      "",
      "",
      "",
      "",
      "",
      "",
      "",
      "",
      "",
      "",
      "",
      "",
      "",
      "",
      "",
      "",
      "",
      "",
      "",
      "",
      "",
      "",
      "",
      "",
      "",
      "",
      "",
      "",
      "",
      "",
      "",
      ""
    ],
    [
      "Emploi salarié en fin de trimestre - Ensemble des salariés du secteur public - Bourgogne-Franche-Comté",
      "10568026",
      "",
      "",
      "",
      "",
      "",
      "",
      "",
      "",
      "",
      "",
      "",
      "",
      "",
      "",
      "",
      "",
      "",
      "",
      "",
      "",
      "",
      "",
      "",
      "",
      "",
      "",
      "",
      "",
      "",
      "",
      "",
      "",
      "",
      "",
      "",
      "",
      "",
      "238033",
      "237913",
      "237060",
      "236415",
      "238024",
      "237282",
      "236697",
      "237035",
      "237166",
      "238923",
      "239743",
      "240027",
      "241421",
      "241688",
      "241625",
      "240930",
      "240920",
      "241967",
      "242811",
      "241814",
      "242100",
      "241464",
      "242413",
      "243421",
      "242023",
      "242321",
      "242016",
      "241207",
      "241226",
      "240276",
      "239319"
    ],
    [
      "",
      "",
      "",
      "",
      "",
      "",
      "",
      "",
      "",
      "",
      "",
      "",
      "",
      "",
      "",
      "",
      "",
      "",
      "",
      "",
      "",
      "",
      "",
      "",
      "",
      "",
      "",
      "",
      "",
      "",
      "",
      "",
      "",
      "",
      "",
      "",
      "",
      "",
      "",
      "",
      "",
      "",
      "",
      "",
      "",
      "",
      "",
      "",
      "",
      "",
      "",
      "",
      "",
      "",
      "",
      "",
      "",
      "",
      "",
      "",
      "",
      "",
      "",
      "",
      "",
      "",
      "",
      "",
      "",
      ""
    ],
    [
      "Emploi salarié en fin de trimestre - Ensemble des salariés du secteur public - Normandie",
      "10568027",
      "",
      "",
      "",
      "",
      "",
      "",
      "",
      "",
      "",
      "",
      "",
      "",
      "",
      "",
      "",
      "",
      "",
      "",
      "",
      "",
      "",
      "",
      "",
      "",
      "",
      "",
      "",
      "",
      "",
      "",
      "",
      "",
      "",
      "",
      "",
      "",
      "",
      "272163",
      "270997",
      "271120",
      "270392",
      "270682",
      "271183",
      "272440",
      "271993",
      "272759",
      "272868",
      "272995",
      "273706",
      "274156",
      "274731",
      "274659",
      "275348",
      "276504",
      "276584",
      "277421",
      "276498",
      "276622",
      "276770",
      "276636",
      "276790",
      "276854",
      "275977",
      "276305",
      "275064",
      "274662",
      "274730",
      "274086"
    ],
    [
      "",
      "",
      "",
      "",
      "",
      "",
      "",
      "",
      "",
      "",
      "",
      "",
      "",
      "",
      "",
      "",
      "",
      "",
      "",
      "",
      "",
      "",
      "",
      "",
      "",
      "",
      "",
      "",
      "",
      "",
      "",
      "",
      "",
      "",
      "",
      "",
      "",
      "",
      "",
      "",
      "",
      "",
      "",
      "",
      "",
      "",
      "",
      "",
      "",
      "",
      "",
      "",
      "",
      "",
      "",
      "",
      "",
      "",
      "",
      "",
      "",
      "",
      "",
      "",
      "",
      "",
      "",
      "",
      "",
      ""
    ],
    [
      "Emploi salarié en fin de trimestre - Ensemble des salariés du secteur public - Hauts-de-France",
      "10568028",
      "",
      "",
      "",
      "",
      "",
      "",
      "",
      "",
      "",
      "",
      "",
      "",
      "",
      "",
      "",
      "",
      "",
      "",
      "",
      "",
      "",
      "",
      "",
      "",
      "",
      "",
      "",
      "",
      "",
      "",
      "",
      "",
      "",
      "",
      "",
      "",
      "",
      "493479",
      "494461",
      "493250",
      "491739",
      "491429",
      "491879",
      "491841",
      "492813",
      "490829",
      "490161",
      "491706",
      "493577",
      "497182",
      "498956",
      "498703",
      "498528",
      "501358",
      "500278",
      "501253",
      "501733",
      "502054",
      "501482",
      "501289",
      "502280",
      "503218",
      "502983",
      "503238",
      "501721",
      "497254",
      "496916",
      "493984"
    ],
    [
      "",
      "",
      "",
      "",
      "",
      "",
      "",
      "",
      "",
      "",
      "",
      "",
      "",
      "",
      "",
      "",
      "",
      "",
      "",
      "",
      "",
      "",
      "",
      "",
      "",
      "",
      "",
      "",
      "",
      "",
      "",
      "",
      "",
      "",
      "",
      "",
      "",
      "",
      "",
      "",
      "",
      "",
      "",
      "",
      "",
      "",
      "",
      "",
      "",
      "",
      "",
      "",
      "",
      "",
      "",
      "",
      "",
      "",
      "",
      "",
      "",
      "",
      "",
      "",
      "",
      "",
      "",
      "",
      "",
      ""
    ],
    [
      "Emploi salarié en fin de trimestre - Ensemble des salariés du secteur public - Grand Est",
      "10568029",
      "",
      "",
      "",
      "",
      "",
      "",
      "",
      "",
      "",
      "",
      "",
      "",
      "",
      "",
      "",
      "",
      "",
      "",
      "",
      "",
      "",
      "",
      "",
      "",
      "",
      "",
      "",
      "",
      "",
      "",
      "",
      "",
      "",
      "",
      "",
      "",
      "",
      "475235",
      "473774",
      "471784",
      "468742",
      "469874",
      "469780",
      "468904",
      "469406",
      "468770",
      "468900",
      "470046",
      "470635",
      "474269",
      "475612",
      "475826",
      "476383",
      "477880",
      "476995",
      "478562",
      "477142",
      "476668",
      "477871",
      "477354",
      "477185",
      "476513",
      "477521",
      "477150",
      "476049",
      "475358",
      "475406",
      "473993"
    ],
    [
      "",
      "",
      "",
      "",
      "",
      "",
      "",
      "",
      "",
      "",
      "",
      "",
      "",
      "",
      "",
      "",
      "",
      "",
      "",
      "",
      "",
      "",
      "",
      "",
      "",
      "",
      "",
      "",
      "",
      "",
      "",
      "",
      "",
      "",
      "",
      "",
      "",
      "",
      "",
      "",
      "",
      "",
      "",
      "",
      "",
      "",
      "",
      "",
      "",
      "",
      "",
      "",
      "",
      "",
      "",
      "",
      "",
      "",
      "",
      "",
      "",
      "",
      "",
      "",
      "",
      "",
      "",
      "",
      "",
      ""
    ],
    [
      "Emploi salarié en fin de trimestre - Ensemble des salariés du secteur public - Pays de la Loire",
      "10568030",
      "",
      "",
      "",
      "",
      "",
      "",
      "",
      "",
      "",
      "",
      "",
      "",
      "",
      "",
      "",
      "",
      "",
      "",
      "",
      "",
      "",
      "",
      "",
      "",
      "",
      "",
      "",
      "",
      "",
      "",
      "",
      "",
      "",
      "",
      "",
      "",
      "",
      "269386",
      "269414",
      "270708",
      "268698",
      "269669",
      "269315",
      "270792",
      "271663",
      "271781",
      "272013",
      "272075",
      "273499",
      "275362",
      "275856",
      "276829",
      "277154",
      "277774",
      "277392",
      "278084",
      "277484",
      "277640",
      "278025",
      "278514",
      "279813",
      "280120",
      "280544",
      "280866",
      "280347",
      "281387",
      "281789",
      "281606"
    ],
    [
      "",
      "",
      "",
      "",
      "",
      "",
      "",
      "",
      "",
      "",
      "",
      "",
      "",
      "",
      "",
      "",
      "",
      "",
      "",
      "",
      "",
      "",
      "",
      "",
      "",
      "",
      "",
      "",
      "",
      "",
      "",
      "",
      "",
      "",
      "",
      "",
      "",
      "",
      "",
      "",
      "",
      "",
      "",
      "",
      "",
      "",
      "",
      "",
      "",
      "",
      "",
      "",
      "",
      "",
      "",
      "",
      "",
      "",
      "",
      "",
      "",
      "",
      "",
      "",
      "",
      "",
      "",
      "",
      "",
      ""
    ],
    [
      "Emploi salarié en fin de trimestre - Ensemble des salariés du secteur public - Bretagne",
      "10568031",
      "",
      "",
      "",
      "",
      "",
      "",
      "",
      "",
      "",
      "",
      "",
      "",
      "",
      "",
      "",
      "",
      "",
      "",
      "",
      "",
      "",
      "",
      "",
      "",
      "",
      "",
      "",
      "",
      "",
      "",
      "",
      "",
      "",
      "",
      "",
      "",
      "",
      "289961",
      "291221",
      "291484",
      "291016",
      "291005",
      "292182",
      "291883",
      "292311",
      "292291",
      "293378",
      "293407",
      "294587",
      "296632",
      "297132",
      "297778",
      "298491",
      "299377",
      "298983",
      "300255",
      "299475",
      "298024",
      "299508",
      "299786",
      "299677",
      "301018",
      "302077",
      "302251",
      "303234",
      "305091",
      "305626",
      "305517"
    ],
    [
      "",
      "",
      "",
      "",
      "",
      "",
      "",
      "",
      "",
      "",
      "",
      "",
      "",
      "",
      "",
      "",
      "",
      "",
      "",
      "",
      "",
      "",
      "",
      "",
      "",
      "",
      "",
      "",
      "",
      "",
      "",
      "",
      "",
      "",
      "",
      "",
      "",
      "",
      "",
      "",
      "",
      "",
      "",
      "",
      "",
      "",
      "",
      "",
      "",
      "",
      "",
      "",
      "",
      "",
      "",
      "",
      "",
      "",
      "",
      "",
      "",
      "",
      "",
      "",
      "",
      "",
      "",
      "",
      "",
      ""
    ],
    [
      "Emploi salarié en fin de trimestre - Ensemble des salariés du secteur public - Nouvelle-Aquitaine",
      "10568032",
      "",
      "",
      "",
      "",
      "",
      "",
      "",
      "",
      "",
      "",
      "",
      "",
      "",
      "",
      "",
      "",
      "",
      "",
      "",
      "",
      "",
      "",
      "",
      "",
      "",
      "",
      "",
      "",
      "",
      "",
      "",
      "",
      "",
      "",
      "",
      "",
      "",
      "508799",
      "510369",
      "510406",
      "508411",
      "510383",
      "510154",
      "510861",
      "512125",
      "513627",
      "514399",
      "517198",
      "519417",
      "523003",
      "524019",
      "525226",
      "524964",
      "525519",
      "525303",
      "526662",
      "526119",
      "527383",
      "528015",
      "527955",
      "529940",
      "529231",
      "531012",
      "531549",
      "531183",
      "531514",
      "531468",
      "530659"
    ],
    [
      "",
      "",
      "",
      "",
      "",
      "",
      "",
      "",
      "",
      "",
      "",
      "",
      "",
      "",
      "",
      "",
      "",
      "",
      "",
      "",
      "",
      "",
      "",
      "",
      "",
      "",
      "",
      "",
      "",
      "",
      "",
      "",
      "",
      "",
      "",
      "",
      "",
      "",
      "",
      "",
      "",
      "",
      "",
      "",
      "",
      "",
      "",
      "",
      "",
      "",
      "",
      "",
      "",
      "",
      "",
      "",
      "",
      "",
      "",
      "",
      "",
      "",
      "",
      "",
      "",
      "",
      "",
      "",
      "",
      ""
    ],
    [
      "Emploi salarié en fin de trimestre - Ensemble des salariés du secteur public - Occitanie",
      "10568033",
      "",
      "",
      "",
      "",
      "",
      "",
      "",
      "",
      "",
      "",
      "",
      "",
      "",
      "",
      "",
      "",
      "",
      "",
      "",
      "",
      "",
      "",
      "",
      "",
      "",
      "",
      "",
      "",
      "",
      "",
      "",
      "",
      "",
      "",
      "",
      "",
      "",
      "479047",
      "478075",
      "479461",
      "477640",
      "478949",
      "479733",
      "482500",
      "482714",
      "482755",
      "485421",
      "486320",
      "487806",
      "492927",
      "495392",
      "496701",
      "498559",
      "498006",
      "497701",
      "500478",
      "500320",
      "501937",
      "502884",
      "503115",
      "505032",
      "506964",
      "508237",
      "508690",
      "509724",
      "509687",
      "509959",
      "509397"
    ],
    [
      "",
      "",
      "",
      "",
      "",
      "",
      "",
      "",
      "",
      "",
      "",
      "",
      "",
      "",
      "",
      "",
      "",
      "",
      "",
      "",
      "",
      "",
      "",
      "",
      "",
      "",
      "",
      "",
      "",
      "",
      "",
      "",
      "",
      "",
      "",
      "",
      "",
      "",
      "",
      "",
      "",
      "",
      "",
      "",
      "",
      "",
      "",
      "",
      "",
      "",
      "",
      "",
      "",
      "",
      "",
      "",
      "",
      "",
      "",
      "",
      "",
      "",
      "",
      "",
      "",
      "",
      "",
      "",
      "",
      ""
    ],
    [
      "Emploi salarié en fin de trimestre - Ensemble des salariés du secteur public - Auvergne-Rhône-Alpes",
      "10568034",
      "",
      "",
      "",
      "",
      "",
      "",
      "",
      "",
      "",
      "",
      "",
      "",
      "",
      "",
      "",
      "",
      "",
      "",
      "",
      "",
      "",
      "",
      "",
      "",
      "",
      "",
      "",
      "",
      "",
      "",
      "",
      "",
      "",
      "",
      "",
      "",
      "",
      "624087",
      "623005",
      "622610",
      "619404",
      "622675",
      "624428",
      "626269",
      "629122",
      "630042",
      "633758",
      "636248",
      "632533",
      "638214",
      "637618",
      "639213",
      "639141",
      "642932",
      "642181",
      "643518",
      "643352",
      "643945",
      "644091",
      "646259",
      "647766",
      "647272",
      "647983",
      "647617",
      "648036",
      "646675",
      "647162",
      "645912"
    ],
    [
      "",
      "",
      "",
      "",
      "",
      "",
      "",
      "",
      "",
      "",
      "",
      "",
      "",
      "",
      "",
      "",
      "",
      "",
      "",
      "",
      "",
      "",
      "",
      "",
      "",
      "",
      "",
      "",
      "",
      "",
      "",
      "",
      "",
      "",
      "",
      "",
      "",
      "",
      "",
      "",
      "",
      "",
      "",
      "",
      "",
      "",
      "",
      "",
      "",
      "",
      "",
      "",
      "",
      "",
      "",
      "",
      "",
      "",
      "",
      "",
      "",
      "",
      "",
      "",
      "",
      "",
      "",
      "",
      "",
      ""
    ],
    [
      "Emploi salarié en fin de trimestre - Ensemble des salariés du secteur public - Provence-Alpes-Côte d'Azur",
      "10568035",
      "",
      "",
      "",
      "",
      "",
      "",
      "",
      "",
      "",
      "",
      "",
      "",
      "",
      "",
      "",
      "",
      "",
      "",
      "",
      "",
      "",
      "",
      "",
      "",
      "",
      "",
      "",
      "",
      "",
      "",
      "",
      "",
      "",
      "",
      "",
      "",
      "",
      "440503",
      "440215",
      "439830",
      "440893",
      "442086",
      "443902",
      "443469",
      "444217",
      "444119",
      "443743",
      "446361",
      "446719",
      "450530",
      "454121",
      "452004",
      "453285",
      "454747",
      "454890",
      "455952",
      "454884",
      "456913",
      "456004",
      "456480",
      "455612",
      "456282",
      "455963",
      "456275",
      "454867",
      "453075",
      "453502",
      "453799"
    ],
    [
      "",
      "",
      "",
      "",
      "",
      "",
      "",
      "",
      "",
      "",
      "",
      "",
      "",
      "",
      "",
      "",
      "",
      "",
      "",
      "",
      "",
      "",
      "",
      "",
      "",
      "",
      "",
      "",
      "",
      "",
      "",
      "",
      "",
      "",
      "",
      "",
      "",
      "",
      "",
      "",
      "",
      "",
      "",
      "",
      "",
      "",
      "",
      "",
      "",
      "",
      "",
      "",
      "",
      "",
      "",
      "",
      "",
      "",
      "",
      "",
      "",
      "",
      "",
      "",
      "",
      "",
      "",
      "",
      "",
      ""
    ],
    [
      "Emploi salarié en fin de trimestre - Ensemble des salariés du secteur public - Corse",
      "10568036",
      "",
      "",
      "",
      "",
      "",
      "",
      "",
      "",
      "",
      "",
      "",
      "",
      "",
      "",
      "",
      "",
      "",
      "",
      "",
      "",
      "",
      "",
      "",
      "",
      "",
      "",
      "",
      "",
      "",
      "",
      "",
      "",
      "",
      "",
      "",
      "",
      "",
      "30285",
      "30177",
      "30192",
      "30279",
      "30409",
      "30484",
      "30514",
      "30593",
      "30851",
      "30901",
      "31033",
      "31013",
      "31353",
      "31581",
      "31613",
      "31889",
      "32025",
      "32164",
      "32088",
      "32115",
      "32373",
      "32393",
      "32523",
      "32685",
      "32435",
      "32442",
      "32580",
      "32467",
      "32465",
      "32465",
      "32524"
    ],
    [
      "",
      "",
      "",
      "",
      "",
      "",
      "",
      "",
      "",
      "",
      "",
      "",
      "",
      "",
      "",
      "",
      "",
      "",
      "",
      "",
      "",
      "",
      "",
      "",
      "",
      "",
      "",
      "",
      "",
      "",
      "",
      "",
      "",
      "",
      "",
      "",
      "",
      "",
      "",
      "",
      "",
      "",
      "",
      "",
      "",
      "",
      "",
      "",
      "",
      "",
      "",
      "",
      "",
      "",
      "",
      "",
      "",
      "",
      "",
      "",
      "",
      "",
      "",
      "",
      "",
      "",
      "",
      "",
      "",
      ""
    ],
    [
      "Emploi salarié en fin de trimestre - Ensemble des salariés du secteur public - France hors Mayotte",
      "10568037",
      "",
      "",
      "",
      "",
      "",
      "",
      "",
      "",
      "",
      "",
      "",
      "",
      "",
      "",
      "",
      "",
      "",
      "",
      "",
      "",
      "",
      "",
      "",
      "",
      "",
      "",
      "",
      "",
      "",
      "",
      "",
      "",
      "",
      "",
      "",
      "",
      "",
      "5628315",
      "5625839",
      "5625913",
      "5609036",
      "5622681",
      "5632173",
      "5637545",
      "5646477",
      "5646293",
      "5651990",
      "5671974",
      "5680516",
      "5727318",
      "5744936",
      "5743734",
      "5748877",
      "5765678",
      "5762045",
      "5777278",
      "5771101",
      "5776112",
      "5779855",
      "5786545",
      "5795373",
      "5800129",
      "5804863",
      "5808493",
      "5801058",
      "5793210",
      "5791926",
      "5780166"
    ],
    [
      "",
      "",
      "",
      "",
      "",
      "",
      "",
      "",
      "",
      "",
      "",
      "",
      "",
      "",
      "",
      "",
      "",
      "",
      "",
      "",
      "",
      "",
      "",
      "",
      "",
      "",
      "",
      "",
      "",
      "",
      "",
      "",
      "",
      "",
      "",
      "",
      "",
      "",
      "",
      "",
      "",
      "",
      "",
      "",
      "",
      "",
      "",
      "",
      "",
      "",
      "",
      "",
      "",
      "",
      "",
      "",
      "",
      "",
      "",
      "",
      "",
      "",
      "",
      "",
      "",
      "",
      "",
      "",
      "",
      ""
    ],
    [
      "Emploi salarié en fin de trimestre - Ensemble des salariés du secteur privé - Île-de-France",
      "10568006",
      "",
      "",
      "",
      "",
      "",
      "",
      "",
      "",
      "",
      "",
      "",
      "",
      "",
      "",
      "",
      "",
      "",
      "",
      "",
      "",
      "",
      "",
      "",
      "",
      "",
      "",
      "",
      "",
      "",
      "",
      "",
      "",
      "",
      "",
      "",
      "",
      "",
      "4468881",
      "4485693",
      "4495173",
      "4499497",
      "4506947",
      "4506571",
      "4515145",
      "4508915",
      "4506275",
      "4505553",
      "4504019",
      "4506273",
      "4522123",
      "4523338",
      "4526059",
      "4527138",
      "4534305",
      "4537353",
      "4549116",
      "4553396",
      "4564340",
      "4573486",
      "4588166",
      "4606982",
      "4617904",
      "4651634",
      "4670792",
      "4686894",
      "4713950",
      "4721171",
      "4732738"
    ],
    [
      "",
      "",
      "",
      "",
      "",
      "",
      "",
      "",
      "",
      "",
      "",
      "",
      "",
      "",
      "",
      "",
      "",
      "",
      "",
      "",
      "",
      "",
      "",
      "",
      "",
      "",
      "",
      "",
      "",
      "",
      "",
      "",
      "",
      "",
      "",
      "",
      "",
      "",
      "",
      "",
      "",
      "",
      "",
      "",
      "",
      "",
      "",
      "",
      "",
      "",
      "",
      "",
      "",
      "",
      "",
      "",
      "",
      "",
      "",
      "",
      "",
      "",
      "",
      "",
      "",
      "",
      "",
      "",
      "",
      ""
    ],
    [
      "Emploi salarié en fin de trimestre - Ensemble des salariés du secteur privé - Centre-Val de Loire",
      "10568007",
      "",
      "",
      "",
      "",
      "",
      "",
      "",
      "",
      "",
      "",
      "",
      "",
      "",
      "",
      "",
      "",
      "",
      "",
      "",
      "",
      "",
      "",
      "",
      "",
      "",
      "",
      "",
      "",
      "",
      "",
      "",
      "",
      "",
      "",
      "",
      "",
      "",
      "701986",
      "702163",
      "700308",
      "698358",
      "697686",
      "695863",
      "694505",
      "692094",
      "690646",
      "687636",
      "684799",
      "685917",
      "686007",
      "684796",
      "684551",
      "682960",
      "681397",
      "680568",
      "681992",
      "681233",
      "681584",
      "682961",
      "683587",
      "683750",
      "687292",
      "688546",
      "692051",
      "692314",
      "694718",
      "693022",
      "693507"
    ],
    [
      "",
      "",
      "",
      "",
      "",
      "",
      "",
      "",
      "",
      "",
      "",
      "",
      "",
      "",
      "",
      "",
      "",
      "",
      "",
      "",
      "",
      "",
      "",
      "",
      "",
      "",
      "",
      "",
      "",
      "",
      "",
      "",
      "",
      "",
      "",
      "",
      "",
      "",
      "",
      "",
      "",
      "",
      "",
      "",
      "",
      "",
      "",
      "",
      "",
      "",
      "",
      "",
      "",
      "",
      "",
      "",
      "",
      "",
      "",
      "",
      "",
      "",
      "",
      "",
      "",
      "",
      "",
      "",
      "",
      ""
    ],
    [
      "Emploi salarié en fin de trimestre - Ensemble des salariés du secteur privé - Bourgogne-Franche-Comté",
      "10568008",
      "",
      "",
      "",
      "",
      "",
      "",
      "",
      "",
      "",
      "",
      "",
      "",
      "",
      "",
      "",
      "",
      "",
      "",
      "",
      "",
      "",
      "",
      "",
      "",
      "",
      "",
      "",
      "",
      "",
      "",
      "",
      "",
      "",
      "",
      "",
      "",
      "",
      "748016",
      "749333",
      "748917",
      "748599",
      "748906",
      "746303",
      "742902",
      "741241",
      "735747",
      "733021",
      "730853",
      "734529",
      "729508",
      "728041",
      "727554",
      "723879",
      "722791",
      "721246",
      "722284",
      "721117",
      "721142",
      "720102",
      "721334",
      "733509",
      "723862",
      "727679",
      "731064",
      "731036",
      "734529",
      "735225",
      "732761"
    ],
    [
      "",
      "",
      "",
      "",
      "",
      "",
      "",
      "",
      "",
      "",
      "",
      "",
      "",
      "",
      "",
      "",
      "",
      "",
      "",
      "",
      "",
      "",
      "",
      "",
      "",
      "",
      "",
      "",
      "",
      "",
      "",
      "",
      "",
      "",
      "",
      "",
      "",
      "",
      "",
      "",
      "",
      "",
      "",
      "",
      "",
      "",
      "",
      "",
      "",
      "",
      "",
      "",
      "",
      "",
      "",
      "",
      "",
      "",
      "",
      "",
      "",
      "",
      "",
      "",
      "",
      "",
      "",
      "",
      "",
      ""
    ],
    [
      "Emploi salarié en fin de trimestre - Ensemble des salariés du secteur privé - Normandie",
      "10568009",
      "",
      "",
      "",
      "",
      "",
      "",
      "",
      "",
      "",
      "",
      "",
      "",
      "",
      "",
      "",
      "",
      "",
      "",
      "",
      "",
      "",
      "",
      "",
      "",
      "",
      "",
      "",
      "",
      "",
      "",
      "",
      "",
      "",
      "",
      "",
      "",
      "",
      "899354",
      "900754",
      "900521",
      "899295",
      "900698",
      "897534",
      "894985",
      "893587",
      "889510",
      "888232",
      "883133",
      "883422",
      "882530",
      "881213",
      "883181",
      "879694",
      "877968",
      "875750",
      "874706",
      "873398",
      "874625",
      "873938",
      "874069",
      "876201",
      "876568",
      "877703",
      "881955",
      "882207",
      "884776",
      "886059",
      "887015"
    ],
    [
      "",
      "",
      "",
      "",
      "",
      "",
      "",
      "",
      "",
      "",
      "",
      "",
      "",
      "",
      "",
      "",
      "",
      "",
      "",
      "",
      "",
      "",
      "",
      "",
      "",
      "",
      "",
      "",
      "",
      "",
      "",
      "",
      "",
      "",
      "",
      "",
      "",
      "",
      "",
      "",
      "",
      "",
      "",
      "",
      "",
      "",
      "",
      "",
      "",
      "",
      "",
      "",
      "",
      "",
      "",
      "",
      "",
      "",
      "",
      "",
      "",
      "",
      "",
      "",
      "",
      "",
      "",
      "",
      "",
      ""
    ],
    [
      "Emploi salarié en fin de trimestre - Ensemble des salariés du secteur privé - Hauts-de-France",
      "10568010",
      "",
      "",
      "",
      "",
      "",
      "",
      "",
      "",
      "",
      "",
      "",
      "",
      "",
      "",
      "",
      "",
      "",
      "",
      "",
      "",
      "",
      "",
      "",
      "",
      "",
      "",
      "",
      "",
      "",
      "",
      "",
      "",
      "",
      "",
      "",
      "",
      "",
      "1533076",
      "1535581",
      "1535910",
      "1534077",
      "1532764",
      "1530675",
      "1526238",
      "1517986",
      "1511354",
      "1509780",
      "1501278",
      "1502957",
      "1503219",
      "1502386",
      "1501759",
      "1495406",
      "1495860",
      "1494802",
      "1496259",
      "1498334",
      "1500527",
      "1501567",
      "1506138",
      "1508916",
      "1511020",
      "1511858",
      "1516968",
      "1521987",
      "1529113",
      "1528812",
      "1531290"
    ],
    [
      "",
      "",
      "",
      "",
      "",
      "",
      "",
      "",
      "",
      "",
      "",
      "",
      "",
      "",
      "",
      "",
      "",
      "",
      "",
      "",
      "",
      "",
      "",
      "",
      "",
      "",
      "",
      "",
      "",
      "",
      "",
      "",
      "",
      "",
      "",
      "",
      "",
      "",
      "",
      "",
      "",
      "",
      "",
      "",
      "",
      "",
      "",
      "",
      "",
      "",
      "",
      "",
      "",
      "",
      "",
      "",
      "",
      "",
      "",
      "",
      "",
      "",
      "",
      "",
      "",
      "",
      "",
      "",
      "",
      ""
    ],
    [
      "Emploi salarié en fin de trimestre - Ensemble des salariés du secteur privé - Grand Est",
      "10568011",
      "",
      "",
      "",
      "",
      "",
      "",
      "",
      "",
      "",
      "",
      "",
      "",
      "",
      "",
      "",
      "",
      "",
      "",
      "",
      "",
      "",
      "",
      "",
      "",
      "",
      "",
      "",
      "",
      "",
      "",
      "",
      "",
      "",
      "",
      "",
      "",
      "",
      "1495567",
      "1499331",
      "1497341",
      "1494953",
      "1495162",
      "1490372",
      "1484687",
      "1480093",
      "1472670",
      "1467712",
      "1464244",
      "1460715",
      "1458704",
      "1457517",
      "1455364",
      "1449477",
      "1444863",
      "1441138",
      "1440358",
      "1440123",
      "1440719",
      "1440903",
      "1444462",
      "1444916",
      "1446780",
      "1451537",
      "1457794",
      "1461253",
      "1467960",
      "1469403",
      "1469842"
    ],
    [
      "",
      "",
      "",
      "",
      "",
      "",
      "",
      "",
      "",
      "",
      "",
      "",
      "",
      "",
      "",
      "",
      "",
      "",
      "",
      "",
      "",
      "",
      "",
      "",
      "",
      "",
      "",
      "",
      "",
      "",
      "",
      "",
      "",
      "",
      "",
      "",
      "",
      "",
      "",
      "",
      "",
      "",
      "",
      "",
      "",
      "",
      "",
      "",
      "",
      "",
      "",
      "",
      "",
      "",
      "",
      "",
      "",
      "",
      "",
      "",
      "",
      "",
      "",
      "",
      "",
      "",
      "",
      "",
      "",
      ""
    ],
    [
      "Emploi salarié en fin de trimestre - Ensemble des salariés du secteur privé - Pays de la Loire",
      "10568012",
      "",
      "",
      "",
      "",
      "",
      "",
      "",
      "",
      "",
      "",
      "",
      "",
      "",
      "",
      "",
      "",
      "",
      "",
      "",
      "",
      "",
      "",
      "",
      "",
      "",
      "",
      "",
      "",
      "",
      "",
      "",
      "",
      "",
      "",
      "",
      "",
      "",
      "1084524",
      "1089016",
      "1090390",
      "1091573",
      "1090766",
      "1092388",
      "1091815",
      "1089984",
      "1091353",
      "1090182",
      "1085397",
      "1088550",
      "1092495",
      "1090818",
      "1094473",
      "1091150",
      "1090557",
      "1090972",
      "1096388",
      "1099312",
      "1104168",
      "1110004",
      "1114496",
      "1117566",
      "1122124",
      "1130030",
      "1138269",
      "1145139",
      "1154508",
      "1158269",
      "1160507"
    ],
    [
      "",
      "",
      "",
      "",
      "",
      "",
      "",
      "",
      "",
      "",
      "",
      "",
      "",
      "",
      "",
      "",
      "",
      "",
      "",
      "",
      "",
      "",
      "",
      "",
      "",
      "",
      "",
      "",
      "",
      "",
      "",
      "",
      "",
      "",
      "",
      "",
      "",
      "",
      "",
      "",
      "",
      "",
      "",
      "",
      "",
      "",
      "",
      "",
      "",
      "",
      "",
      "",
      "",
      "",
      "",
      "",
      "",
      "",
      "",
      "",
      "",
      "",
      "",
      "",
      "",
      "",
      "",
      "",
      "",
      ""
    ],
    [
      "Emploi salarié en fin de trimestre - Ensemble des salariés du secteur privé - Bretagne",
      "10568013",
      "",
      "",
      "",
      "",
      "",
      "",
      "",
      "",
      "",
      "",
      "",
      "",
      "",
      "",
      "",
      "",
      "",
      "",
      "",
      "",
      "",
      "",
      "",
      "",
      "",
      "",
      "",
      "",
      "",
      "",
      "",
      "",
      "",
      "",
      "",
      "",
      "",
      "867552",
      "872930",
      "873233",
      "871290",
      "872537",
      "872310",
      "871230",
      "868685",
      "867581",
      "863622",
      "857469",
      "862043",
      "865824",
      "865575",
      "867944",
      "865488",
      "866482",
      "868491",
      "872576",
      "874204",
      "877604",
      "880638",
      "883846",
      "886260",
      "887166",
      "895067",
      "902801",
      "904985",
      "909710",
      "914661",
      "915190"
    ],
    [
      "",
      "",
      "",
      "",
      "",
      "",
      "",
      "",
      "",
      "",
      "",
      "",
      "",
      "",
      "",
      "",
      "",
      "",
      "",
      "",
      "",
      "",
      "",
      "",
      "",
      "",
      "",
      "",
      "",
      "",
      "",
      "",
      "",
      "",
      "",
      "",
      "",
      "",
      "",
      "",
      "",
      "",
      "",
      "",
      "",
      "",
      "",
      "",
      "",
      "",
      "",
      "",
      "",
      "",
      "",
      "",
      "",
      "",
      "",
      "",
      "",
      "",
      "",
      "",
      "",
      "",
      "",
      "",
      "",
      ""
    ],
    [
      "Emploi salarié en fin de trimestre - Ensemble des salariés du secteur privé - Nouvelle-Aquitaine",
      "10568014",
      "",
      "",
      "",
      "",
      "",
      "",
      "",
      "",
      "",
      "",
      "",
      "",
      "",
      "",
      "",
      "",
      "",
      "",
      "",
      "",
      "",
      "",
      "",
      "",
      "",
      "",
      "",
      "",
      "",
      "",
      "",
      "",
      "",
      "",
      "",
      "",
      "",
      "1520433",
      "1522090",
      "1525454",
      "1533888",
      "1526191",
      "1528622",
      "1527336",
      "1523312",
      "1525010",
      "1525526",
      "1518856",
      "1521992",
      "1527183",
      "1525711",
      "1527299",
      "1522517",
      "1522423",
      "1519836",
      "1524309",
      "1528208",
      "1529277",
      "1530527",
      "1536968",
      "1540583",
      "1546307",
      "1554428",
      "1561963",
      "1567130",
      "1576394",
      "1583077",
      "1585437"
    ],
    [
      "",
      "",
      "",
      "",
      "",
      "",
      "",
      "",
      "",
      "",
      "",
      "",
      "",
      "",
      "",
      "",
      "",
      "",
      "",
      "",
      "",
      "",
      "",
      "",
      "",
      "",
      "",
      "",
      "",
      "",
      "",
      "",
      "",
      "",
      "",
      "",
      "",
      "",
      "",
      "",
      "",
      "",
      "",
      "",
      "",
      "",
      "",
      "",
      "",
      "",
      "",
      "",
      "",
      "",
      "",
      "",
      "",
      "",
      "",
      "",
      "",
      "",
      "",
      "",
      "",
      "",
      "",
      "",
      "",
      ""
    ],
    [
      "Emploi salarié en fin de trimestre - Ensemble des salariés du secteur privé - Occitanie",
      "10568015",
      "",
      "",
      "",
      "",
      "",
      "",
      "",
      "",
      "",
      "",
      "",
      "",
      "",
      "",
      "",
      "",
      "",
      "",
      "",
      "",
      "",
      "",
      "",
      "",
      "",
      "",
      "",
      "",
      "",
      "",
      "",
      "",
      "",
      "",
      "",
      "",
      "",
      "1401250",
      "1403294",
      "1409373",
      "1410720",
      "1409509",
      "1412782",
      "1412904",
      "1410238",
      "1409171",
      "1408127",
      "1405238",
      "1409188",
      "1410667",
      "1410115",
      "1411892",
      "1411006",
      "1414726",
      "1414780",
      "1419789",
      "1422039",
      "1428920",
      "1434790",
      "1441175",
      "1448791",
      "1455515",
      "1463259",
      "1473040",
      "1475326",
      "1484363",
      "1492796",
      "1495208"
    ],
    [
      "",
      "",
      "",
      "",
      "",
      "",
      "",
      "",
      "",
      "",
      "",
      "",
      "",
      "",
      "",
      "",
      "",
      "",
      "",
      "",
      "",
      "",
      "",
      "",
      "",
      "",
      "",
      "",
      "",
      "",
      "",
      "",
      "",
      "",
      "",
      "",
      "",
      "",
      "",
      "",
      "",
      "",
      "",
      "",
      "",
      "",
      "",
      "",
      "",
      "",
      "",
      "",
      "",
      "",
      "",
      "",
      "",
      "",
      "",
      "",
      "",
      "",
      "",
      "",
      "",
      "",
      "",
      "",
      "",
      ""
    ],
    [
      "Emploi salarié en fin de trimestre - Ensemble des salariés du secteur privé - Auvergne-Rhône-Alpes",
      "10568016",
      "",
      "",
      "",
      "",
      "",
      "",
      "",
      "",
      "",
      "",
      "",
      "",
      "",
      "",
      "",
      "",
      "",
      "",
      "",
      "",
      "",
      "",
      "",
      "",
      "",
      "",
      "",
      "",
      "",
      "",
      "",
      "",
      "",
      "",
      "",
      "",
      "",
      "2247351",
      "2254451",
      "2257993",
      "2256403",
      "2257257",
      "2258730",
      "2258175",
      "2263026",
      "2253399",
      "2253294",
      "2253868",
      "2262656",
      "2267686",
      "2268162",
      "2267099",
      "2261877",
      "2267192",
      "2262871",
      "2269415",
      "2272233",
      "2280603",
      "2285919",
      "2292783",
      "2304201",
      "2306365",
      "2320296",
      "2332206",
      "2338245",
      "2358989",
      "2363082",
      "2364089"
    ],
    [
      "",
      "",
      "",
      "",
      "",
      "",
      "",
      "",
      "",
      "",
      "",
      "",
      "",
      "",
      "",
      "",
      "",
      "",
      "",
      "",
      "",
      "",
      "",
      "",
      "",
      "",
      "",
      "",
      "",
      "",
      "",
      "",
      "",
      "",
      "",
      "",
      "",
      "",
      "",
      "",
      "",
      "",
      "",
      "",
      "",
      "",
      "",
      "",
      "",
      "",
      "",
      "",
      "",
      "",
      "",
      "",
      "",
      "",
      "",
      "",
      "",
      "",
      "",
      "",
      "",
      "",
      "",
      "",
      "",
      ""
    ],
    [
      "Emploi salarié en fin de trimestre - Ensemble des salariés du secteur privé - Provence-Alpes-Côte d'Azur",
      "10568017",
      "",
      "",
      "",
      "",
      "",
      "",
      "",
      "",
      "",
      "",
      "",
      "",
      "",
      "",
      "",
      "",
      "",
      "",
      "",
      "",
      "",
      "",
      "",
      "",
      "",
      "",
      "",
      "",
      "",
      "",
      "",
      "",
      "",
      "",
      "",
      "",
      "",
      "1324605",
      "1327316",
      "1329931",
      "1325494",
      "1329161",
      "1329042",
      "1327896",
      "1325604",
      "1325202",
      "1324528",
      "1323284",
      "1325961",
      "1327936",
      "1327191",
      "1328346",
      "1327744",
      "1329039",
      "1328372",
      "1334886",
      "1333148",
      "1339169",
      "1346520",
      "1354240",
      "1357319",
      "1359104",
      "1364502",
      "1370595",
      "1374638",
      "1381185",
      "1389443",
      "1390670"
    ],
    [
      "",
      "",
      "",
      "",
      "",
      "",
      "",
      "",
      "",
      "",
      "",
      "",
      "",
      "",
      "",
      "",
      "",
      "",
      "",
      "",
      "",
      "",
      "",
      "",
      "",
      "",
      "",
      "",
      "",
      "",
      "",
      "",
      "",
      "",
      "",
      "",
      "",
      "",
      "",
      "",
      "",
      "",
      "",
      "",
      "",
      "",
      "",
      "",
      "",
      "",
      "",
      "",
      "",
      "",
      "",
      "",
      "",
      "",
      "",
      "",
      "",
      "",
      "",
      "",
      "",
      "",
      "",
      "",
      "",
      ""
    ],
    [
      "Emploi salarié en fin de trimestre - Ensemble des salariés du secteur privé - Corse",
      "10568018",
      "",
      "",
      "",
      "",
      "",
      "",
      "",
      "",
      "",
      "",
      "",
      "",
      "",
      "",
      "",
      "",
      "",
      "",
      "",
      "",
      "",
      "",
      "",
      "",
      "",
      "",
      "",
      "",
      "",
      "",
      "",
      "",
      "",
      "",
      "",
      "",
      "",
      "74769",
      "74970",
      "75477",
      "75587",
      "75516",
      "75964",
      "75878",
      "76006",
      "76219",
      "76026",
      "75906",
      "76119",
      "76484",
      "76671",
      "76800",
      "76647",
      "76622",
      "76587",
      "76941",
      "77321",
      "77266",
      "77729",
      "78272",
      "78671",
      "78636",
      "79776",
      "80547",
      "80292",
      "80185",
      "81859",
      "82878"
    ],
    [
      "",
      "",
      "",
      "",
      "",
      "",
      "",
      "",
      "",
      "",
      "",
      "",
      "",
      "",
      "",
      "",
      "",
      "",
      "",
      "",
      "",
      "",
      "",
      "",
      "",
      "",
      "",
      "",
      "",
      "",
      "",
      "",
      "",
      "",
      "",
      "",
      "",
      "",
      "",
      "",
      "",
      "",
      "",
      "",
      "",
      "",
      "",
      "",
      "",
      "",
      "",
      "",
      "",
      "",
      "",
      "",
      "",
      "",
      "",
      "",
      "",
      "",
      "",
      "",
      "",
      "",
      "",
      "",
      "",
      ""
    ],
    [
      "Emploi salarié en fin de trimestre - Ensemble des salariés du secteur privé - France hors Mayotte",
      "10568019",
      "",
      "",
      "",
      "",
      "",
      "",
      "",
      "",
      "",
      "",
      "",
      "",
      "",
      "",
      "",
      "",
      "",
      "",
      "",
      "",
      "",
      "",
      "",
      "",
      "",
      "",
      "",
      "",
      "",
      "",
      "",
      "",
      "",
      "",
      "",
      "",
      "",
      "18704065",
      "18754378",
      "18777724",
      "18782065",
      "18783461",
      "18776918",
      "18765617",
      "18730591",
      "18693742",
      "18671748",
      "18627085",
      "18656423",
      "18687409",
      "18679440",
      "18690594",
      "18655649",
      "18665516",
      "18654915",
      "18700845",
      "18718383",
      "18766385",
      "18807437",
      "18868490",
      "18937260",
      "18970118",
      "19065345",
      "19163725",
      "19214453",
      "19326597",
      "19375416",
      "19399680"
    ],
    [
      "",
      "",
      "",
      "",
      "",
      "",
      "",
      "",
      "",
      "",
      "",
      "",
      "",
      "",
      "",
      "",
      "",
      "",
      "",
      "",
      "",
      "",
      "",
      "",
      "",
      "",
      "",
      "",
      "",
      "",
      "",
      "",
      "",
      "",
      "",
      "",
      "",
      "",
      "",
      "",
      "",
      "",
      "",
      "",
      "",
      "",
      "",
      "",
      "",
      "",
      "",
      "",
      "",
      "",
      "",
      "",
      "",
      "",
      "",
      "",
      "",
      "",
      "",
      "",
      "",
      "",
      "",
      "",
      "",
      ""
    ],
    [
      "Emploi salarié en fin de trimestre - Ensemble des salariés du secteur public - Guadeloupe",
      "10568038",
      "",
      "",
      "",
      "",
      "",
      "",
      "",
      "",
      "",
      "",
      "",
      "",
      "",
      "",
      "",
      "",
      "",
      "",
      "",
      "",
      "",
      "",
      "",
      "",
      "",
      "",
      "",
      "",
      "",
      "",
      "",
      "",
      "",
      "",
      "",
      "",
      "",
      "40512",
      "40755",
      "40834",
      "40885",
      "40578",
      "40540",
      "40818",
      "40769",
      "41010",
      "40964",
      "41389",
      "41264",
      "41820",
      "42259",
      "42127",
      "42016",
      "42256",
      "41807",
      "42204",
      "42445",
      "42837",
      "42883",
      "42983",
      "42986",
      "43063",
      "43211",
      "43312",
      "43089",
      "42733",
      "43105",
      "43057"
    ],
    [
      "",
      "",
      "",
      "",
      "",
      "",
      "",
      "",
      "",
      "",
      "",
      "",
      "",
      "",
      "",
      "",
      "",
      "",
      "",
      "",
      "",
      "",
      "",
      "",
      "",
      "",
      "",
      "",
      "",
      "",
      "",
      "",
      "",
      "",
      "",
      "",
      "",
      "",
      "",
      "",
      "",
      "",
      "",
      "",
      "",
      "",
      "",
      "",
      "",
      "",
      "",
      "",
      "",
      "",
      "",
      "",
      "",
      "",
      "",
      "",
      "",
      "",
      "",
      "",
      "",
      "",
      "",
      "",
      "",
      ""
    ],
    [
      "Emploi salarié en fin de trimestre - Ensemble des salariés du secteur public - Martinique",
      "10568039",
      "",
      "",
      "",
      "",
      "",
      "",
      "",
      "",
      "",
      "",
      "",
      "",
      "",
      "",
      "",
      "",
      "",
      "",
      "",
      "",
      "",
      "",
      "",
      "",
      "",
      "",
      "",
      "",
      "",
      "",
      "",
      "",
      "",
      "",
      "",
      "",
      "",
      "42150",
      "42032",
      "42043",
      "41501",
      "41980",
      "40969",
      "40830",
      "40690",
      "40666",
      "40455",
      "40488",
      "40476",
      "40704",
      "41122",
      "40866",
      "41168",
      "41229",
      "41139",
      "41289",
      "40949",
      "41544",
      "40950",
      "40969",
      "41237",
      "41061",
      "41131",
      "41283",
      "41101",
      "41145",
      "41227",
      "40808"
    ],
    [
      "",
      "",
      "",
      "",
      "",
      "",
      "",
      "",
      "",
      "",
      "",
      "",
      "",
      "",
      "",
      "",
      "",
      "",
      "",
      "",
      "",
      "",
      "",
      "",
      "",
      "",
      "",
      "",
      "",
      "",
      "",
      "",
      "",
      "",
      "",
      "",
      "",
      "",
      "",
      "",
      "",
      "",
      "",
      "",
      "",
      "",
      "",
      "",
      "",
      "",
      "",
      "",
      "",
      "",
      "",
      "",
      "",
      "",
      "",
      "",
      "",
      "",
      "",
      "",
      "",
      "",
      "",
      "",
      "",
      ""
    ],
    [
      "Emploi salarié en fin de trimestre - Ensemble des salariés du secteur public - Guyane",
      "10568040",
      "",
      "",
      "",
      "",
      "",
      "",
      "",
      "",
      "",
      "",
      "",
      "",
      "",
      "",
      "",
      "",
      "",
      "",
      "",
      "",
      "",
      "",
      "",
      "",
      "",
      "",
      "",
      "",
      "",
      "",
      "",
      "",
      "",
      "",
      "",
      "",
      "",
      "19994",
      "19831",
      "19822",
      "19827",
      "19593",
      "19748",
      "20094",
      "20042",
      "20316",
      "20385",
      "20380",
      "21004",
      "21297",
      "21653",
      "21624",
      "21764",
      "21994",
      "22482",
      "22488",
      "22744",
      "22732",
      "22757",
      "22827",
      "22616",
      "22815",
      "22631",
      "22746",
      "22953",
      "22923",
      "23258",
      "23360"
    ],
    [
      "",
      "",
      "",
      "",
      "",
      "",
      "",
      "",
      "",
      "",
      "",
      "",
      "",
      "",
      "",
      "",
      "",
      "",
      "",
      "",
      "",
      "",
      "",
      "",
      "",
      "",
      "",
      "",
      "",
      "",
      "",
      "",
      "",
      "",
      "",
      "",
      "",
      "",
      "",
      "",
      "",
      "",
      "",
      "",
      "",
      "",
      "",
      "",
      "",
      "",
      "",
      "",
      "",
      "",
      "",
      "",
      "",
      "",
      "",
      "",
      "",
      "",
      "",
      "",
      "",
      "",
      "",
      "",
      "",
      ""
    ],
    [
      "Emploi salarié en fin de trimestre - Ensemble des salariés du secteur public - La Réunion",
      "10568041",
      "",
      "",
      "",
      "",
      "",
      "",
      "",
      "",
      "",
      "",
      "",
      "",
      "",
      "",
      "",
      "",
      "",
      "",
      "",
      "",
      "",
      "",
      "",
      "",
      "",
      "",
      "",
      "",
      "",
      "",
      "",
      "",
      "",
      "",
      "",
      "",
      "",
      "74753",
      "74336",
      "75309",
      "76176",
      "77277",
      "77705",
      "78089",
      "77791",
      "77185",
      "77696",
      "78684",
      "80152",
      "82553",
      "83598",
      "83258",
      "83922",
      "85270",
      "86949",
      "87195",
      "87259",
      "87603",
      "88095",
      "89012",
      "89194",
      "88749",
      "88855",
      "89122",
      "88526",
      "87862",
      "86157",
      "84950"
    ],
    [
      "",
      "",
      "",
      "",
      "",
      "",
      "",
      "",
      "",
      "",
      "",
      "",
      "",
      "",
      "",
      "",
      "",
      "",
      "",
      "",
      "",
      "",
      "",
      "",
      "",
      "",
      "",
      "",
      "",
      "",
      "",
      "",
      "",
      "",
      "",
      "",
      "",
      "",
      "",
      "",
      "",
      "",
      "",
      "",
      "",
      "",
      "",
      "",
      "",
      "",
      "",
      "",
      "",
      "",
      "",
      "",
      "",
      "",
      "",
      "",
      "",
      "",
      "",
      "",
      "",
      "",
      "",
      "",
      "",
      ""
    ],
    [
      "Emploi salarié en fin de trimestre - Ensemble des salariés du secteur privé - Guadeloupe",
      "10568020",
      "",
      "",
      "",
      "",
      "",
      "",
      "",
      "",
      "",
      "",
      "",
      "",
      "",
      "",
      "",
      "",
      "",
      "",
      "",
      "",
      "",
      "",
      "",
      "",
      "",
      "",
      "",
      "",
      "",
      "",
      "",
      "",
      "",
      "",
      "",
      "",
      "",
      "77586",
      "77036",
      "77401",
      "78300",
      "77317",
      "76668",
      "77340",
      "76276",
      "75977",
      "76792",
      "76303",
      "74638",
      "74096",
      "73802",
      "73278",
      "72911",
      "73300",
      "73139",
      "72918",
      "73577",
      "73773",
      "74266",
      "74181",
      "74258",
      "74351",
      "73600",
      "74727",
      "74086",
      "74835",
      "75410",
      "75195"
    ],
    [
      "",
      "",
      "",
      "",
      "",
      "",
      "",
      "",
      "",
      "",
      "",
      "",
      "",
      "",
      "",
      "",
      "",
      "",
      "",
      "",
      "",
      "",
      "",
      "",
      "",
      "",
      "",
      "",
      "",
      "",
      "",
      "",
      "",
      "",
      "",
      "",
      "",
      "",
      "",
      "",
      "",
      "",
      "",
      "",
      "",
      "",
      "",
      "",
      "",
      "",
      "",
      "",
      "",
      "",
      "",
      "",
      "",
      "",
      "",
      "",
      "",
      "",
      "",
      "",
      "",
      "",
      "",
      "",
      "",
      ""
    ],
    [
      "Emploi salarié en fin de trimestre - Ensemble des salariés du secteur privé - Martinique",
      "10568021",
      "",
      "",
      "",
      "",
      "",
      "",
      "",
      "",
      "",
      "",
      "",
      "",
      "",
      "",
      "",
      "",
      "",
      "",
      "",
      "",
      "",
      "",
      "",
      "",
      "",
      "",
      "",
      "",
      "",
      "",
      "",
      "",
      "",
      "",
      "",
      "",
      "",
      "83775",
      "82880",
      "83140",
      "83095",
      "81204",
      "80775",
      "81242",
      "81277",
      "81481",
      "81460",
      "80072",
      "78681",
      "78944",
      "78689",
      "78728",
      "79591",
      "78972",
      "78827",
      "79299",
      "79968",
      "80432",
      "81020",
      "81202",
      "80891",
      "81722",
      "80564",
      "81472",
      "81189",
      "81935",
      "82306",
      "82077"
    ],
    [
      "",
      "",
      "",
      "",
      "",
      "",
      "",
      "",
      "",
      "",
      "",
      "",
      "",
      "",
      "",
      "",
      "",
      "",
      "",
      "",
      "",
      "",
      "",
      "",
      "",
      "",
      "",
      "",
      "",
      "",
      "",
      "",
      "",
      "",
      "",
      "",
      "",
      "",
      "",
      "",
      "",
      "",
      "",
      "",
      "",
      "",
      "",
      "",
      "",
      "",
      "",
      "",
      "",
      "",
      "",
      "",
      "",
      "",
      "",
      "",
      "",
      "",
      "",
      "",
      "",
      "",
      "",
      "",
      "",
      ""
    ],
    [
      "Emploi salarié en fin de trimestre - Ensemble des salariés du secteur privé - Guyane",
      "10568022",
      "",
      "",
      "",
      "",
      "",
      "",
      "",
      "",
      "",
      "",
      "",
      "",
      "",
      "",
      "",
      "",
      "",
      "",
      "",
      "",
      "",
      "",
      "",
      "",
      "",
      "",
      "",
      "",
      "",
      "",
      "",
      "",
      "",
      "",
      "",
      "",
      "",
      "26781",
      "27632",
      "27434",
      "28399",
      "28317",
      "28465",
      "28925",
      "28419",
      "28440",
      "28325",
      "28490",
      "28189",
      "28419",
      "28264",
      "28515",
      "28896",
      "28770",
      "28950",
      "28549",
      "28601",
      "28787",
      "29042",
      "28944",
      "28974",
      "29412",
      "28229",
      "29136",
      "29582",
      "30175",
      "30852",
      "31225"
    ],
    [
      "",
      "",
      "",
      "",
      "",
      "",
      "",
      "",
      "",
      "",
      "",
      "",
      "",
      "",
      "",
      "",
      "",
      "",
      "",
      "",
      "",
      "",
      "",
      "",
      "",
      "",
      "",
      "",
      "",
      "",
      "",
      "",
      "",
      "",
      "",
      "",
      "",
      "",
      "",
      "",
      "",
      "",
      "",
      "",
      "",
      "",
      "",
      "",
      "",
      "",
      "",
      "",
      "",
      "",
      "",
      "",
      "",
      "",
      "",
      "",
      "",
      "",
      "",
      "",
      "",
      "",
      "",
      "",
      "",
      ""
    ],
    [
      "Emploi salarié en fin de trimestre - Ensemble des salariés du secteur privé - La Réunion",
      "10568023",
      "",
      "",
      "",
      "",
      "",
      "",
      "",
      "",
      "",
      "",
      "",
      "",
      "",
      "",
      "",
      "",
      "",
      "",
      "",
      "",
      "",
      "",
      "",
      "",
      "",
      "",
      "",
      "",
      "",
      "",
      "",
      "",
      "",
      "",
      "",
      "",
      "",
      "148561",
      "149909",
      "149729",
      "152538",
      "153524",
      "153854",
      "154415",
      "153848",
      "153709",
      "151931",
      "153876",
      "154593",
      "155584",
      "157151",
      "157754",
      "159269",
      "160246",
      "161234",
      "161061",
      "162170",
      "163450",
      "164025",
      "164625",
      "165471",
      "165989",
      "166636",
      "168345",
      "168150",
      "169271",
      "169968",
      "170052"
    ],
    [
      ""
    ]
  ],
  "errors": [],
  "meta": {
    "delimiter": ",",
    "linebreak": "\n",
    "aborted": false,
    "truncated": false,
    "cursor": 15922
  }
}